{
    "Sonidos": {
        "Sonido largo": {
           "Fallos": 0
        },
        "Sonido corto": {
           "Fallos": 0
        },
        "Sonido agudo": {
           "Fallos": 0
        },
        "Sonido grave": {
           "Fallos": 0
        },
        "Sonido consonante": {
           "Fallos": 0
        },
        "Sonido disonante": {
           "Fallos": 0
        },
        "Sonido hueco": {
           "Fallos": 0
        }
    }, 

    "Las escalas": {  
        "Intervalo 2da - Intro": {
           "Fallos": 2
        },  
        "Escala mayor": {
           "Fallos": 0
        },
        "Escala menor": {
           "Fallos": 0
        },
        "Escala cromática": {
           "Fallos": 0
        }
    },

    "Los intervalos": {
        "Intervalo 2da": {
           "Fallos": 0
        },
        "Intervalo 3ra": {
           "Fallos": 0
        },
        "Intervalo 4ta": {
           "Fallos": 0
        },
        "Intervalo 5ta": {
           "Fallos": 0
        },
        "Intervalo 6ta": {
           "Fallos": 0
        },
        "Intervalo 7ma": {
           "Fallos": 0
        },
        "Intervalo 8va": {
           "Fallos": 0
        }
    },
    
    "Los acordes": {
        "Acorde Mayor": {
           "Fallos": 0
        },
        "Acorde Menor": {
           "Fallos": 0
        },
        "Acorde disminuido": {
           "Fallos": 0
        },
        "Acorde aumentado": {
           "Fallos": 0
        }
    }
}