{   
    "Introducción": {
        "host": "Music Kids",
        "video": ["http://192.168.100.25/1.- Introduccion.mp4","https://youtu.be/MIZA4srh5Xg"],
        "body": {
            "subtitle": "¡Hola a todos! Esto es Music Kids, la aplicación de apoyo a estudio musical.",
            "content": "Esta aplicación tiene como objetivo el complementar clases de música, para comprender el funcionamiento general de la aplicación presionen el botón de ** MÁS RECURSOS **",
            "sound": {},
            "image": {},
            "gif":{},
            "field": "introduccion"
        },
        "activity": false
    },

    "Lecciones": {
        "host": "Music Kids",
        "video": ["http://192.168.100.25/2.- Lecciones.mp4","https://youtu.be/0cXhIWaTbgY"],
        "body": {
            "subtitle": "¡Hola a todos! Esto es Music Kids, la aplicación de apoyo a estudio musical.",
            "content": "Las lecciones en Music Kids son un apoyo complementario para las clases de música; estas contienen vídeos de apoyo, lectura descriptiva y un vídeo demostrativo del tema a ver. Cada lección completada dentro de Music Kids irá llenando una barra de proceso y cuando esta esté llena desbloquará un trofeo indicando que la unidad fue completada exitosamente. Para mas información, presione el botón de ** MÁS RECURSOS **",
            "sound": {},
            "image": {},
            "gif":{},
            "field": "que_es_musica"
        },
        "activity": false
    },

    "Biblioteca": {
        "host": "Music Kids",
        "video": ["http://192.168.100.25/3.- Biblioteca.mp4","https://youtu.be/L6WCCZql68w"],
        "body": {
            "subtitle": "¡Hola a todos! Esto es Music Kids, la aplicación de apoyo a estudio musical.",
            "content": "La biblioteca en Music Kids califican mas como un juego de coordinación, donde el beneficio de tocar correctamente las notas que van cayendo se ve reflejado en una melodía linda creada por el usuario. Para mas información, presione el botón de ** MÁS RECURSOS ** ",
            "sound": {},
            "image": {},
            "gif":{},
            "field": "musica_animo"
        },
        "activity": false
    },
    
    "Configuracion": {
        "host": "Music Kids",
        "video": ["http://192.168.100.25/4.- Configuracion.mp4","https://youtu.be/WTcptXSSk1M"],
        "body": {
            "subtitle": "¡Hola a todos! Esto es Music Kids, la aplicación de apoyo a estudio musical.",
            "content": "Yo seré su ayudante personal durante todas las lecciones, me encargaré de darles pistas en las lecciones y ayudarles a entender la app :D",
            "sound": {},
            "image": {},
            "gif":{},
            "field": "helpybot"
        },
        "activity": false
    },

    "Sonido largo": {
        "host": "Music Kids",
        "video": ["http://192.168.100.25/5.- Sonido largo.mp4", "https://youtu.be/eql5cmDgPBM"],
        "body": {
            "subtitle": "¡Hola a todos! Hoy les presentaremos los sonidos largos :D",
            "content": "Un sonido largo: Es uno que duuuraaaa mucho :O",
            "sound": {
                "Sonido largo": ["assets/music_resources/lessons/1/Sonido largo.mp3", false, "assets/icon/buttons/sonido_largo.png"]
            },
            "image": {},
            "gif":{},
            "field": "sonido_largo" 
        },
        "activity": true
    },

    "Sonido corto": {
        "host": "Music Kids",
        "video": ["http://192.168.100.25/6.- Sonido corto.mp4","https://youtu.be/2MWs7h80DCY"],
        "body": {
            "subtitle": "¡Hola a todos! Hoy les presentaremos los sonidos cortos :D",
            "content": "Un sonido cortito, es uno que dura poquito :x",
            "sound": {
                "Sonido corto": ["assets/music_resources/lessons/1/Sonido corto.mp3", false, "assets/icon/buttons/sonido_corto.png"]
            },
            "image": {},
            "gif":{},
            "field": "sonido_corto"
        },
        "activity": true
    },

    "Sonido agudo": {
        "host": "Music Kids",
        "video": ["http://192.168.100.25/7.- Sonido agudo.mp4","https://youtu.be/f_a-6Ix0SnY"],
        "body": {
            "subtitle": "¡Hola a todos! Hoy les presentaremos los sonidos agudos :D",
            "content": "Un sonido agudón, es uno que suena como ratón >.<",
            "sound": {
                "Sonido agudo": ["assets/music_resources/lessons/1/Sonido agudo.mp3", false, "assets/icon/buttons/sonido_agudo.png"]
            },
            "image": {},
            "gif":{},
            "field": "sonido_agudo" 
        },
        "activity": true
    },
    
    "Sonido grave": {
        "host": "Music Kids",
        "video": ["http://192.168.100.25/8.- Sonido grave.mp4","https://youtu.be/bAiaBbtDt7A"],
        "body": {
            "subtitle": "¡Hola a todos! Hoy les presentaremos los sonidos graves :D",
            "content": "Un sonido grave, es uno que suena como GIGANTE >:3",
            "sound": {
                "Sonido grave": ["assets/music_resources/lessons/1/Sonido grave.mp3", false, "assets/icon/buttons/sonido_grave.png"]
            },
            "image": {},
            "gif":{},
            "field": "sonido_grave" 
        },
        "activity": true
    },

    "Sonido fuerte": {
        "host": "Music Kids",
        "video": ["http://192.168.100.25/9.- Sonido fuerte.mp4","https://youtu.be/t_LdtHc6Jac"],
        "body": {
            "subtitle": "¡Hola a todos! Hoy les presentaremos los sonidos fuertes :D",
            "content": "Un sonido fuerte, es uno que estremece >.<",
            "sound": {
                "Sonido fuerte": ["assets/music_resources/lessons/1/Sonido fuerte.mp3", false, "assets/icon/buttons/sonido_fuerte.png"]
            },
            "image": {},
            "gif":{},
            "field": "sonido_fuerte" 
        },
        "activity": false
    },
    
    "Sonido suave": {
        "host": "Music Kids",
        "video": ["http://192.168.100.25/10.- Sonido suave.mp4","https://youtu.be/brhiXPpMUE0"],
        "body": {
            "subtitle": "¡Hola a todos! Hoy les presentaremos los sonidos suaves :D",
            "content": "Un sonido suave, es uno ligerito que apenas percibe :o",
            "sound": {
                "Sonido suave": ["assets/music_resources/lessons/1/Sonido suave.mp3", false, "assets/icon/buttons/sonido_suave_1.png"]
            },
            "image": {},
            "gif":{},
            "field": "sonido_suave"
        },
        "activity": false
    },

    "Sonido consonante": {
        "host": "Music Kids",
        "video": ["http://192.168.100.25/11.- Sonido consonante.mp4","https://youtu.be/ykDbF-OlUBE"],
        "body": {
            "subtitle": "¡Hola a todos! Hoy les presentaremos los sonidos consonantes :D",
            "content": "Un sonido consonante: es cuando ambos sonidos encajan como pareja, que emocionante >.<",
            "sound": {
                "Sonido consonante 1": ["assets/music_resources/lessons/1/Sonido consonante 1.mp3", true, "assets/icon/buttons/sonido consonante_1.png"],
                "Sonido consonante 2": ["assets/music_resources/lessons/1/Sonido consonante 2.mp3", true, "assets/icon/buttons/sonido consonante_2.png"],
                "Sonido consonante 3": ["assets/music_resources/lessons/1/Sonido consonante 3.mp3", true, "assets/icon/buttons/sonido consonante_3.png"],
                "Sonido consonante 4": ["assets/music_resources/lessons/1/Sonido consonante 4.mp3", true, "assets/icon/buttons/sonido consonante_4.png"]
            },
            "image": {},
            "gif":[
                ["Sonido consonante 1", "assets/music_resources/lessons/1/Sonido consonante 1.gif"],
                ["Sonido consonante 2", "assets/music_resources/lessons/1/Sonido consonante 2.gif"],
                ["Sonido consonante 3", "assets/music_resources/lessons/1/Sonido consonante 3.gif"],
                ["Sonido consonante 4", "assets/music_resources/lessons/1/Sonido consonante 4.gif"]
            ],
            "field": "sonido_consonante"
            
        },
        "activity": true
    },
    
    "Sonido disonante": {
        "host": "Music Kids",
        "video": ["http://192.168.100.25/12.- Sonido disonante.mp4","https://youtu.be/o889PyNjRvM"],
        "body": {
            "subtitle": "¡Hola a todos! Hoy les presentaremos los sonidos disonantes :D",
            "content": "Un sonido disonante: es cuando ambos sonidos son como rivales D:",
            "sound": {
                "Sonido disonante 1": ["assets/music_resources/lessons/1/Sonido disonante 1.mp3", true, "assets/icon/buttons/sonido disonante_1.png"],
                "Sonido disonante 2": ["assets/music_resources/lessons/1/Sonido disonante 2.mp3", true, "assets/icon/buttons/sonido disonante_2.png"],
                "Sonido disonante 3": ["assets/music_resources/lessons/1/Sonido disonante 3.mp3", true, "assets/icon/buttons/sonido disonante_3.png"],
                "Sonido disonante 4": ["assets/music_resources/lessons/1/Sonido disonante 4.mp3", true, "assets/icon/buttons/sonido disonante_4.png"]
            },
            "image": {},
            "gif":[
                ["Sonido disonante 1", "assets/music_resources/lessons/1/Sonido disonante 1.gif"],
                ["Sonido disonante 2", "assets/music_resources/lessons/1/Sonido disonante 2.gif"],
                ["Sonido disonante 3", "assets/music_resources/lessons/1/Sonido disonante 3.gif"],
                ["Sonido disonante 4", "assets/music_resources/lessons/1/Sonido disonante 4.gif"]
            ],
            "field": "sonido_disonante"
            
        },
        "activity": true
    },
    
    "Sonido hueco": {
        "host": "Music Kids",
        "video": ["http://192.168.100.25/13.- Sonido hueco.mp4","https://youtu.be/wvZRDiZN5zo"],
        "body": {
            "subtitle": "¡Hola a todos! Hoy les presentaremos los sonidos huecos :D",
            "content": "Un sonido hueco: es cuando ambos sonidos son distantes y similares :x",
            "sound": {
                "Sonido hueco 1":["assets/music_resources/lessons/1/Sonido hueco 1.mp3", true, "assets/icon/buttons/sonido hueco_1.png"],
                "Sonido hueco 2":["assets/music_resources/lessons/1/Sonido hueco 2.mp3", true, "assets/icon/buttons/sonido hueco_2.png"],
                "Sonido hueco 3":["assets/music_resources/lessons/1/Sonido hueco 3.mp3", true, "assets/icon/buttons/sonido hueco_3.png"]
            },
            "image": {},
            "gif":[
                ["Sonido hueco 1", "assets/music_resources/lessons/1/Sonido hueco 1.gif"],
                ["Sonido hueco 2", "assets/music_resources/lessons/1/Sonido hueco 2.gif"],
                ["Sonido hueco 3", "assets/music_resources/lessons/1/Sonido hueco 3.gif"]
            ],
            "field": "sonido_hueco"
        },
        "activity": true
    },
    
    "Duración": {
        "host": "Music Kids",
        "video": ["http://192.168.100.25/14.- Duración.mp4","https://youtu.be/WTxw4thHtps"],
        "body": {
            "subtitle": "¡Hola a todos! Hoy les presentaremos la duración de los sonidos :D",
            "content": "Si recuerdan los sonidos laaaaaaargos y sonidos cortitos, nos referimos a esto mismo. Un sonido puede tener una duración larga o una duración corta; a esto lo llamaremos 'Duración' :D",
            "sound": {
                "Duración largo":["assets/music_resources/lessons/2/Duracion largo.mp3", true, "assets/icon/buttons/Duracion_A.png"],
                "Duración corto":["assets/music_resources/lessons/2/Duracion corto.mp3", true, "assets/icon/buttons/Duracion_B.png"]
            },
            "image": {
                "Duración": "assets/music_resources/lessons/2/Duracion.png"
            },
            "gif": {},
            "field": "duracion"
        },
        "activity": false
    },

    "Altura": {
        "host": "Music Kids",
        "video": ["http://192.168.100.25/15.- Altura.mp4","https://youtu.be/WVGrC-hHF3s"],
        "body": {
            "subtitle": "¡Hola a todos! Hoy les presentaremos la altura de los sonidos :D",
            "content": "Si recuerdan los sonidos agudos y sonidos graves, nos referimos a esto mismo. Un sonido puede ser agudo o puede ser grave; a esto lo llamaremos 'Altura' :D",
            "sound": {
                "Altura aguda":["assets/music_resources/lessons/2/Altura aguda.mp3", true, "assets/icon/buttons/Altura_aguda.png"],
                "Altura grave":["assets/music_resources/lessons/2/Altura grave.mp3", true, "assets/icon/buttons/Altura_grave.png"]
            },
            "image": {},
            "gif":[
                ["Altura aguda", "assets/music_resources/lessons/2/Altura aguda.gif"],
                ["Altura grave", "assets/music_resources/lessons/2/Altura grave.gif"]
            ],
            "field": "altura"
        },
        "activity": false
    },
    
    "Volumen": {
        "host": "Music Kids",
        "video": ["http://192.168.100.25/16.- Volumen.mp4","https://youtu.be/2dGeY7To4R0"],
        "body": {
            "subtitle": "¡Hola a todos! Hoy les presentaremos el volumen de los sonidos :D",
            "content": "Si recuerdan los sonidos fuertes y sonidos graves, nos referimos a esto mismo. Uno sonido tiene la capacidad de sonar MUY FUERTE o muy suave; a esto lo llamaremos 'Volumen' :D",
            "sound": {
                "Volumen fuerte":["assets/music_resources/lessons/2/Volumen fuerte.mp3", false, "assets/icon/buttons/sonido_alto.png"],
                "Volumen suave":["assets/music_resources/lessons/2/Volumen suave.mp3", false, "assets/icon/buttons/sonido_suave.png"]
            },
            "image": {},
            "gif":{},
            "field": "volumen"
        },
        "activity": false
    },
    
    "Timbre": {
        "host": "Music Kids",
        "video": ["http://192.168.100.25/17.- Timbre.mp4","https://youtu.be/mb9IQ_dRmNw"],
        "body": {
            "subtitle": "¡Hola a todos! Hoy les presentaremos el timbre de los sonidos :D",
            "content": "Cuando hablamos de timbre no nos referimos al timbre de las casas :o Nos referimos a esa forma en la que suena cada instrumento; es decir, el sonido que produce una guitarra nos dice: 'Soy una guitarra y no una batería'; a esto lo llamaremos 'Timbre' :D",
            "sound": {
                "Piano":["assets/music_resources/lessons/2/Timbre Piano.mp3", false, "assets/icon/buttons/grand piano.png"],
                "Violin":["assets/music_resources/lessons/2/Timbre Violin.mp3", false, "assets/icon/buttons/violin.png"],
                "Flauta":["assets/music_resources/lessons/2/Timbre Flauta.mp3", false, "assets/icon/buttons/flute.png"]
            },
            "image": {},
            "gif":{},
            "field": "timbre"
        },
        "activity": false
    }, 

    "Las notas": {
        "host": "Music Kids",
        "video": ["http://192.168.100.25/18.- Las notas.mp4","https://youtu.be/Pxk9yjalGZY"],
        "body": {
            "subtitle": "¡Hola a todos! Hoy les presentaremos las notas musicales :D",
            "content": "Muy posiblemente ya las conozcan y no lo sepan del todo, estas notas se llaman: Do, Re, Mi, Fa, Sol, La, Si. Son siete notas que se van repitiendo para crear melodías increibles y nuevas :D El Do, siempre se encuentra a la izquierda de las dos teclas negras del piano, de esa forma siempre lo podrán encontrar en cualquier piano.",
            "sound":  {
                "Las notas": ["assets/music_resources/lessons/3/Las notas.mp3", true, "assets/icon/buttons/notas.png"]
            },
            "image": {},
            "gif": [
                ["Las notas", "assets/music_resources/lessons/3/Las notas.gif"]
            ],
            "field": "notas"
        },
        "activity": false
    },

    "Intervalo 2da - Intro": {
        "host": "Music Kids",
        "video": ["http://192.168.100.25/19.- Intervalo 2da Intro.mp4","https://youtu.be/tEi-aTeQVaQ"],
        "body": {
            "subtitle": "¡Hola a todos! Hoy les daremos una pequeña introducción a los intervalos.",
            "content": "Los intervalos son una distancia que se puede medir desde un punto a otro, por ejemplo: Podemos medir la cantidad de tiempo que hay entre una hora y la otra. La cantidad de calles que faltan para que lleguemos a casa. La cantidad de juguetes que tenemos. Y para música usamos los intervalos, que es la distancia que existe entre una nota y la otra; para esto empezaremos con el intervalo de '2da' :D",
            "sound":  {
                    "Segunda mayor": ["assets/music_resources/lessons/3/Segunda mayor.mp3", true, "assets/icon/buttons/piano.png"],
                    "Segunda menor": ["assets/music_resources/lessons/3/Segunda menor.mp3", true, "assets/icon/buttons/piano.png"]
            },
            "image": {},
            "gif": [
                ["Segunda mayor", "assets/music_resources/lessons/3/Segunda mayor.gif"],
                ["Segunda menor", "assets/music_resources/lessons/3/Segunda menor.gif"]
            ],
            "field": "2da_intro"
        },
        "activity": false
    },

    "Escala mayor": {
        "host": "Music Kids",
        "video": ["http://192.168.100.25/20.- Escala mayor.mp4","https://youtu.be/U7AJD2bDuIk"],
        "body": {
            "subtitle": "¡Hola a todos! Hoy les daremos una pequeña introducción a las piano mayores.",
            "content": "Una escala mayor es un conjunto de notas que son tocadas una tras de otra, las cuales dan una sonoridad feliz. Pero... ¿Qué notas son? La escala mas sencilla es la escala de Do Mayor, la cual tiene el siguiente orden: Do, Re, Mi, Fa, Sol, La, Si, Do. \nCon la propiedad de tener los siguientes intervalos: 2da Mayor - 2da Mayor - 2da Menor - 2da Mayor - 2da Mayor - 2da Mayor - 2da Menor.",
            "sound":  {
                "Escala mayor": ["assets/music_resources/lessons/3/Escala mayor.mp3", true, "assets/icon/buttons/piano.png"]
            },
            "image":{},
            "gif": [
                ["Escala de Do mayor", "assets/music_resources/lessons/3/Escala mayor.gif"]
            ],
            "field": "escala_mayor"
        },
        "activity": true
    },

    "Escala menor": {
        "host": "Music Kids",
        "video": ["http://192.168.100.25/21.- Escala menor.mp4","https://youtu.be/1YUic813gnc"],
        "body": {
            "subtitle": "¡Hola a todos! Hoy les daremos una pequeña introducción a las piano menores.",
            "content": "Una escala menor es un conjunto de notas que son tocadas una tras de otra, las cuales dan una sonoridad triste. Pero... ¿Qué notas son? La escala mas sencilla es la escala de La Menor, la cual tiene el siguiente orden: La, Si, Do, Re, Mi, Fa, Sol, La. \nCon la propiedad de tener los siguientes intervalos: 2da Mayor - 2da Menor - 2da Mayor - 2da Mayor - 2da Menor - 2da Mayor - 2da Mayor.",
            "sound":  {
                "Escala menor": ["assets/music_resources/lessons/3/Escala menor.mp3", true, "assets/icon/buttons/piano.png"]
            },
            "image":{},
            "gif": [
                ["Escala de La menor", "assets/music_resources/lessons/3/Escala menor.gif"]
            ],
            "field": "escala_menor"
        },
        "activity": true
    },

    "Escala cromática": {
        "host": "Music Kids",
        "video": ["http://192.168.100.25/22.- Escala cromatica.mp4","https://youtu.be/3NGvLOAiCrc"],
        "body": {
            "subtitle": "¡Hola a todos! Hoy les daremos una pequeña introducción a las piano cromáticas.",
            "content": "Una escala menor es un conjunto de notas que son tocadas una tras de otra, las cuales dan una sonoridad curiosa, como si se inflara un globo. Pero... ¿Qué notas son? Bueno, está a diferencia de las dos anteriores, usa notas alteradas; que se conocen como 'Sostenido #' o 'bemol b'. Partiendo de un Do, serían las siguientes notas: Do, Do #, Re, Re #, Fa, Fa #, Sol, Sol #, La, La #, Si, Do.\nCon la propiedad de tener los siguientes intervalos: 2da Menor - 2da Menor - 2da Menor - 2da Menor - 2da Menor - 2da Menor - 2da Menor - 2da Menor - 2da Menor - 2da Menor - 2da Menor.", 
            "sound":  {
                "Escala cromatica":["assets/music_resources/lessons/3/Escala cromatica.mp3", true, "assets/icon/buttons/piano.png"]
            },
            "image":{},
            "gif": [
                ["Escala cromatica", "assets/music_resources/lessons/3/Escala cromatica.gif"]
            ],
            "field": "escala_cromatica"
        },
        "activity": true
    },

    "Intervalos": {
        "host": "Music Kids",
        "video": ["http://192.168.100.25/23.- Intervalos.mp4","https://youtu.be/jiZ0a7d0zB4"],
        "body": {
            "subtitle": "¡Hola a todos! Hoy les daremos una pequeña introducción a los intervalos.",
            "content": "Los intervalos se refieren a la distancia que hay entre una nota y otra. Si lo vemos en el piano por cada tecla que pasa, incluyendo las teclas negritas, se van sumando medias notas o medios tonos después de la nota inicial. Por ejemplo: Entre Do y Re existen dos teclas, sin contar Do, así que sumamos Do # y Re. Por lo cual se suman dos medias notas o medios tonos, y ese sería su intervalo de disstancia entre ambas notas.", 
            "sound": {},
            "image": {},
            "gif":{},
            "field": "intervalos"
        },
        "activity": false
    }, 

    "Intervalo 2da": {
        "host": "Music Kids",
        "video": ["http://192.168.100.25/24.- Intervalo 2da.mp4","https://youtu.be/a7x5Xu65ssU"],
        "body": {
            "subtitle": "¡Hola a todos! Hoy les daremos una pequeña introducción a los intervalos de segunda (2da).",
            "content": "Los intervalos de segunda, tienen la cualidad de ser sonidos disonantes; y para identificarlos por distancia, esta debe ser entre UNO y DOS medias notas o medios tonos. Si se suman UN medio tono, se conoce como intervalo de segunda menor (2da Menor). Si se suman DOS medios tonos, se conoce como segunda mayor (2da Mayor).", 
            "sound": {
                "Segunda mayor": ["assets/music_resources/lessons/4/Segunda mayor.mp3", true, "assets/icon/buttons/piano.png"],
                "Segunda menor": ["assets/music_resources/lessons/4/Segunda menor.mp3", true, "assets/icon/buttons/piano.png"]
            },
            "image":{},
            "gif": [
                ["Segunda mayor", "assets/music_resources/lessons/4/Segunda mayor.gif"],
                ["Segunda menor", "assets/music_resources/lessons/4/Segunda menor.gif"]
            ],
            "field": "intervalos_2"
        },
        "activity": true
    }, 

    "Intervalo 3ra": {
        "host": "Music Kids",
        "video": ["http://192.168.100.25/25.- Intervalo 3ra.mp4","https://youtu.be/Fg1oVviMbok"],
        "body": {
            "subtitle": "¡Hola a todos! Hoy les daremos una pequeña introducción a los intervalos de tercera (3ra).",
            "content": "Los intervalos de tercera, tienen la cualidad de ser sonidos consonantes; y para identificarlos por distancia, esta debe ser entre TRES y CUATRO medias notas o medios tonos. Si se suman TRES medios tonos, se conoce como intervalo de tercera menor (3ra Menor). Si se suman CUATRO medios tonos, se conoce como tercera mayor (3ra Mayor).", 
            "sound": {
                "Tercera mayor": ["assets/music_resources/lessons/4/Tercera mayor.mp3", true, "assets/icon/buttons/piano.png"],
                "Tercera menor": ["assets/music_resources/lessons/4/Tercera menor.mp3", true, "assets/icon/buttons/piano.png"]
            },
            "image":{},
            "gif": [
                ["Tercera mayor", "assets/music_resources/lessons/4/Tercera mayor.gif"],
                ["Tercera menor", "assets/music_resources/lessons/4/Tercera menor.gif"]
            ],
            "field": "intervalos_3"
        },
        "activity": true
    },

    "Intervalo 4ta": {
        "host": "Music Kids",
        "video": ["http://192.168.100.25/26.- Intervalo 4ta.mp4","https://youtu.be/jthv1TI-RSE"],
        "body": {
            "subtitle": "¡Hola a todos! Hoy les daremos una pequeña introducción a los intervalos de cuarta (4ta).",
            "content": "Los intervalos de cuarta, tienen la cualidad de ser sonidos huecos; y para identificarlos por distancia, esta debe ser de CINCO medias notas o medios tonos. Si se suman CINCO medios tonos, se conoce como intervalo de cuarta justa (4ta Justa).", 
            "sound": {
                "Cuarta justa": ["assets/music_resources/lessons/4/Cuarta justa.mp3", true, "assets/icon/buttons/piano.png"]
            },
            "image":{},
            "gif": [
                ["Cuarta justa", "assets/music_resources/lessons/4/Cuarta justa.gif"]
            ],
            "field": "intervalos_4"
        },
        "activity": true
    }, 

    "Intervalo 5ta": {
        "host": "Music Kids",
        "video": ["http://192.168.100.25/27.- Intervalo 5ta.mp4","https://youtu.be/UGjpRpvr1iQ"],
        "body": {
            "subtitle": "¡Hola a todos! Hoy les daremos una pequeña introducción a los intervalos de quinta (5ta).",
            "content": "Los intervalos de quinta, tienen la cualidad de ser sonidos huecos; y para identificarlos por distancia, esta debe ser de SIETE medias notas o medios tonos. Si se suman SIETE medios tonos, se conoce como intervalo de quinta justa (5ta Justa).", 
            "sound": {
                "Quinta justa": ["assets/music_resources/lessons/4/Quinta justa.mp3", true, "assets/icon/buttons/piano.png"]
            },
            "image":{},
            "gif": [
                ["Quinta justa", "assets/music_resources/lessons/4/Quinta justa.gif"]
            ],
            "field": "intervalos_5"
        },
        "activity": true
    }, 

    "Intervalo 6ta": {
        "host": "Music Kids",
        "video": ["http://192.168.100.25/28.- Intervalo 6ta.mp4","https://youtu.be/_2X3XRA86iM"],
        "body": {
            "subtitle": "¡Hola a todos! Hoy les daremos una pequeña introducción a los intervalos de sexta (6ta).",
            "content": "Los intervalos de sexta, tienen la cualidad de ser sonidos consonantes; y para identificarlos por distancia, esta debe ser entre OCHO y NUEVE medias notas o medios tonos. Si se suman OCHO medios tonos, se conoce como intervalo de sexta menor (6ta Menor). Si se suman NUEVE medios tonos, se conoce como sexta mayor (6ta Mayor).", 
            "sound": {
                "Sexta mayor": ["assets/music_resources/lessons/4/Sexta mayor.mp3", true, "assets/icon/buttons/piano.png"],
                "Sexta menor": ["assets/music_resources/lessons/4/Sexta menor.mp3", true, "assets/icon/buttons/piano.png"]
            },
            "image":{},
            "gif": [
                ["Sexta mayor", "assets/music_resources/lessons/4/Sexta mayor.gif"],
                ["Sexta menor", "assets/music_resources/lessons/4/Sexta menor.gif"]
            ],
            "field": "intervalos_6"
            
        },
        "activity": true
    }, 

    "Intervalo 7ma": {
        "host": "Music Kids",
        "video": ["http://192.168.100.25/29.- Intervalo 7ma.mp4","https://youtu.be/hW7Y6yXyRJg"],
        "body": {
            "subtitle": "¡Hola a todos! Hoy les daremos una pequeña introducción a los intervalos de septima (7ma).",
            "content": "Los intervalos de septima, tienen la cualidad de ser sonidos disonantes; y para identificarlos por distancia, esta debe ser entre DIEZ y ONCE medias notas o medios tonos. Si se suman DIEZ medio tono, se conoce como intervalo de septima menor (7ma Menor). Si se suman ONCE medios tonos, se conoce como septima mayor (7ma Mayor).", 
            "sound": {
                "Septima mayor": ["assets/music_resources/lessons/4/Septima mayor.mp3", true, "assets/icon/buttons/piano.png"],
                "Septima menor": ["assets/music_resources/lessons/4/Septima menor.mp3", true, "assets/icon/buttons/piano.png"]
            },
            "image":{},
            "gif": [
                ["Septima mayor", "assets/music_resources/lessons/4/Septima mayor.gif"],
                ["Septima menor", "assets/music_resources/lessons/4/Septima menor.gif"]
            ],
            "field": "intervalos_7"
        },
        "activity": true
    }, 

    "Intervalo 8va": {
        "host": "Music Kids",
        "video": ["http://192.168.100.25/30.- Intervalo 8va.mp4","https://youtu.be/z4RUo1wOM_A"],
        "body": {
            "subtitle": "¡Hola a todos! Hoy les daremos una pequeña introducción a los intervalos de octava (8va).",
            "content": "Los intervalos de octava, tienen la cualidad de ser sonidos huecos pero este es el maaaaaaas lejano; y para identificarlos por distancia, esta debe ser de DOCE medias notas o medios tonos. Si se suman DOCE medios tonos, se conoce como intervalo de octava justa (8va Justa).", 
            "sound": {
                "Ocava justa": ["assets/music_resources/lessons/4/Octava justa.mp3", true, "assets/icon/buttons/piano.png"]
            },
            "image":{},
            "gif": [
                ["Ocava justa", "assets/music_resources/lessons/4/Octava justa.gif"]
            ],
            "field": "intervalos_8"
        },
        "activity": true
    },

    "Acordes": {
        "host": "Music Kids",
        "video": ["http://192.168.100.25/31.- Acorde.mp4","https://youtu.be/evCfIwFIXFY"],
        "body": {
            "subtitle": "¡Hola a todos! Hoy les daremos una pequeña introducción a los acordes.",
            "content": "Posiblemente ya conozcan por nombre los acordes, esos se usan mucho en la guitarra. Los acordes son un conjunto de DOS o MÁS sonidos tocados al mismo tiempo; pero estos sonidos no pueden ser cualquiera, estos sonidos tienen una relación de intervalos y los que veremos serán los básicos para entender como funcionan los acordes. Los acordes que conoceremos estarán construidos siempre por intervalos de 3ra, por ejemplo: Do - Mi - Sol, es un acorde ya que cumple esta pripiedad de las 3ras entre sus sonidos.", 
            "sound": {},
            "image": {},
            "gif":{},
            "field": "acorde"
        },
        "activity": false
    }, 

    "Acorde Mayor": {
        "host": "Music Kids",
        "video": ["http://192.168.100.25/32.- Acorde mayor.mp4","https://youtu.be/Quq3IDPXldo"],
        "body": {
            "subtitle": "¡Hola a todos! Hoy les daremos una pequeña introducción a los acordes mayores.",
            "content": "Los acordes mayores suelen sonar como 'felices' cuando son tocados, y esa será nuestra referencia para identificarlos de forma más rápida. Si los queremos detectar por su estructura, debemos pensar que existen dos terceras, la primera que parte de la nota 'raíz', y la segunda que parte donde llega el intervalo de la nota 'raíz'. Por ejemplo: Do - Mi, tienen un intervalo de 3ra Mayor y Do es mi nota raíz. Mi - Sol, tienen un intervalo de 3ra Menor y parte desde Mi, que es donde llegó el intervalo de Do.", 
            "sound": {
                "Acorde mayor": ["assets/music_resources/lessons/5/Acorde mayor.mp3", true, "assets/icon/buttons/piano.png"]
            },
            "image":{},
            "gif": [
                ["Acorde mayor", "assets/music_resources/lessons/5/Acorde mayor.gif"]
            ],
            "field": "acorde_mayor"
        },
        "activity": true
    }, 

    "Acorde Menor": {
        "host": "Music Kids",
        "video": ["http://192.168.100.25/33.- Acorde menor.mp4","https://youtu.be/fliPeZ6Hz5Q"],
        "body": {
            "subtitle": "¡Hola a todos! Hoy les daremos una pequeña introducción a los acordes menores.",
            "content": "Los acordes menores suelen sonar como 'tristes' cuando son tocados, y esa será nuestra referencia para identificarlos de forma más rápida. Si los queremos detectar por su estructura, debemos pensar que existen dos terceras, la primera que parte de la nota 'raíz', y la segunda que parte donde llega el intervalo de la nota 'raíz'. Por ejemplo: Do - Mi (b), tienen un intervalo de 3ra Menor y Do es mi nota raíz. Mi (b) - Sol, tienen un intervalo de 3ra Mayor y parte desde Mi (b), que es donde llegó el intervalo de Do. Chistosamente los intervalos están invertidos a comparación del acorde mayor :o", 
            "sound": {
                "Acorde menor": ["assets/music_resources/lessons/5/Acorde menor.mp3", true, "assets/icon/buttons/piano.png"]
            },
            "image":{},
            "gif": [
                ["Acorde menor", "assets/music_resources/lessons/5/Acorde menor.gif"]
            ],
            "field": "acorde_menor"
        },
        "activity": true
    }, 

    "Acorde disminuido": {
        "host": "Music Kids",
        "video": ["http://192.168.100.25/34.- Acorde disminuido.mp4","https://youtu.be/vIWFs0xBD1g"],
        "body": {
            "subtitle": "¡Hola a todos! Hoy les daremos una pequeña introducción a los acordes disminuidos.",
            "content": "Los acordes disminuidos suelen sonar como 'tenebrosos' cuando son tocados, y esa será nuestra referencia para identificarlos de forma más rápida. Si los queremos detectar por su estructura, debemos pensar que existen dos terceras, la primera que parte de la nota 'raíz', y la segunda que parte donde llega el intervalo de la nota 'raíz'. Por ejemplo: Do - Mi (b), tienen un intervalo de 3ra Menor y Do es mi nota raíz. Mi (b) - Sol (b), tienen un intervalo de 3ra Menor y parte desde Mi (b), que es donde llegó el intervalo de Do. Ahora los ambos intervalos están repetidos, pero los dos son 3ras Menores :o", 
            "sound": {
                "Acorde disminuido": ["assets/music_resources/lessons/5/Acorde disminuido.mp3", true, "assets/icon/buttons/piano.png"]
            },
            "image":{},
            "gif": [
                ["Acorde disminuido", "assets/music_resources/lessons/5/Acorde disminuido.gif"]
            ],
            "field": "acorde_disminuido"
        },
        "activity": true
    }, 

    "Acorde aumentado": {
        "host": "Music Kids",
        "video": ["http://192.168.100.25/35.- Acorde aumentado.mp4","https://youtu.be/Ed0WtZ2s1fw"],
        "body": {
            "subtitle": "¡Hola a todos! Hoy les daremos una pequeña introducción a los acordes aumentados.",
            "content": "Los acordes aumentados suelen sonar como 'misteriosos' cuando son tocados, y esa será nuestra referencia para identificarlos de forma más rápida. Si los queremos detectar por su estructura, debemos pensar que existen dos terceras, la primera que parte de la nota 'raíz', y la segunda que parte donde llega el intervalo de la nota 'raíz'. Por ejemplo: Do - Mi, tienen un intervalo de 3ra Mayor y Do es mi nota raíz. Mi - Sol #, tienen un intervalo de 3ra Mayor y parte desde Mi, que es donde llegó el intervalo de Do. Ahora los ambos intervalos están repetidos, pero los dos son 3ras Mayores :o", 
            "sound": {
                "Acorde aumentado": ["assets/music_resources/lessons/5/Acorde aumentado.mp3", true, "assets/icon/buttons/piano.png"]
            },
            "image":{},
            "gif": [
                ["Acorde aumentado", "assets/music_resources/lessons/5/Acorde aumentado.gif"]
            ],
            "field": "acorde_aumentado"
        },
        "activity": true
    },
    
    "Figuras rítmicas": {
        "host": "Music Kids",
        "video": ["http://192.168.100.25/36.- Figuras ritmicas.mp4","https://youtu.be/SAaOWcDdHiA"],
        "body": {
            "subtitle": "¡Hola a todos! Hoy les daremos una pequeña introducción a las figuras rítmicas.",
            "content": "Las figuras rítmicas son aquellas que nos indican cuanta duración debe tener una nota, si es larga, corta o muy cortita. Posiblemente ya las conoces de vista, pero en esta sección trataremos de explicarte como suena cada una de estas notas con un tiempo definido y la forma en la que se dicen.", 
            "sound": {},
            "image": {
                "Figuras ritmicas": "assets/music_resources/lessons/6/Figuras ritmicas.png"
            },
            "gif":{},
            "field": "figuras"
        },
        "activity": false
    },
    
    "La redonda": {
        "host": "Music Kids",
        "video": ["http://192.168.100.25/37.- Redonda.mp4","https://youtu.be/8Tqgvr8NV4k"],
        "body": {
            "subtitle": "¡Hola a todos! Hoy les daremos una pequeña introducción a las redondas. (1 ó 4/4)",
            "content": "Empezaremos con la redonda, tal cual como dice su nombre es redonda y esta va a durar mucho mas que las demás. Esta figura dura cuatro pulsos de tiempo y se le dice así: Ta - o - a - o.", 
            "sound": {},
            "image": {
                "La redonda": "assets/music_resources/lessons/6/Redonda.png"
            },
            "gif": {},
            "field": "redonda"
        },
        "activity": false
    },
    
    "La blanca": {
        "host": "Music Kids",
        "video": ["http://192.168.100.25/38.- Blanca.mp4","https://youtu.be/zlP1IqBsheo"],
        "body": {
            "subtitle": "¡Hola a todos! Hoy les daremos una pequeña introducción a las blancas. (1/2 ó 2/4)",
            "content": "Ahora seguiremos con la blanca, esta dura la mitad de tiempo de lo que dura la redonda. Por lo cual esta figura dura dos pulsos de tiempo y se le dice así: Ta - o.", 
            "sound": {},
            "image": {
                "La blanca": "assets/music_resources/lessons/6/Blanca.png"
            },
            "gif": {},
            "field": "blanca"
        },
        "activity": false
    },
    
    "La negra": {
        "host": "Music Kids",
        "video": ["http://192.168.100.25/39.- Negra.mp4","https://youtu.be/e5k36aHtjkY"],
        "body": {
            "subtitle": "¡Hola a todos! Hoy les daremos una pequeña introducción a las negras. (1/4)",
            "content": "Ahora seguiremos con la negra, esta dura la mitad de tiempo de lo que dura la blanca. Por lo cual esta figura dura un pulso de tiempo y se le dice así: Ta.",  
            "sound": {},
            "image": {
                "La negra": "assets/music_resources/lessons/6/Negra.png"
            },
            "gif": {},
            "field": "negra"
        },
        "activity": false
    },
    
    "La corchea": {
        "host": "Music Kids",
        "video": ["http://192.168.100.25/40.- Corchea.mp4","https://youtu.be/3szEL2bQ77c"],
        "body": {
            "subtitle": "¡Hola a todos! Hoy les daremos una pequeña introducción a las corcheas. (1/8)",
            "content": "Ahora seguiremos con la corchea, esta dura la mitad de tiempo de lo que dura la negra. Por lo cual esta figura dura un medio pulso de tiempo, pero para entenderla mejor siempre usaremos dos corcheas y les diremos: Ti - ti",   
            "sound": {},
            "image": {
                "La corchea": "assets/music_resources/lessons/6/Corchea.png",
                "Las corcheas": "assets/music_resources/lessons/6/Corcheas.png"
            },
            "gif": {},
            "field": "corchea"
        },
        "activity": false
    },
    
    "La partitura": {
        "host": "Music Kids",
        "video": ["http://192.168.100.25/41.- La partitura.mp4","https://youtu.be/KBDFycs-dyME"],
        "body": {
            "subtitle": "¡Hola a todos! Hoy les daremos una pequeña introducción a la partitura.",
            "content": "La partitura es la forma en la que podemos leer música de manera mas acertada, ya que viene señalado el tiempo, las notas, su altura, su duración, su rítmica y su volumen. Es como leer un libro, solo que aquí podemos crear música :o", 
            "sound": {},
            "image": {
                "Las partitura": "assets/music_resources/lessons/7/La partitura.png"
            },
            "gif": {},
            "field": "partitura"
        },
        "activity": false
    },
    
    "Pentagrama": {
        "host": "Music Kids",
        "video": ["http://192.168.100.25/42.- Pentagrama.mp4","https://youtu.be/RiCGhm6JuoM"],
        "body": {
            "subtitle": "¡Hola a todos! Hoy les daremos una pequeña introducción al pentagrama.",
            "content": "Pentagrama viene de la palabra 'Pentos' del griego, que significa cinco, por eso el nombre que recibe. El pentagrama son las cinco líneas donde se pueden colocar las notas, cuando hay notas que están fuera de los límites del pentagrama, se colocan en líneas adicionales que son pequeñitas y solo abarcan el tamaño de la figura rítmica.", 
            "sound": {},
            "image": {
                "El pentagrama": "assets/music_resources/lessons/7/Pentagrama.jpeg"
            },
            "gif": {},
            "field": "pentagrama"
        },
        "activity": false
    },
    
    "Claves": {
        "host": "Music Kids",
        "video": ["http://192.168.100.25/43.- Clave.mp4","https://youtu.be/_UO_ylKnuqM"],
        "body": {
            "subtitle": "¡Hola a todos! Hoy les daremos una pequeña introducción a las claves.",
            "content": "Para leer las notas dentro del pentagrama, usamos una clave. Está clave le indica a la persona que la lee donde que nota se debe tocar, en que altura, y con cuanta duración. Las claves que usaremos serán: Clave de Sol y Clave de Fa.", 
            "sound": {},
            "image": {
                "Clave de sol": "assets/music_resources/lessons/7/Clave de sol.png",
                "Clave de fa": "assets/music_resources/lessons/7/Clave de Fa.png"
            },
            "gif":{},
            "field": "claves"
        },
        "activity": false
    },
    
    "Armaduras": {
        "host": "Music Kids",
        "video": ["http://192.168.100.25/44.- Armaduras.mp4","https://youtu.be/RUdlrDivShA"],
        "body": {
            "subtitle": "¡Hola a todos! Hoy les daremos una pequeña introducción a las armaduras.",
            "content": "Las armaduras nos sirven para indicar que notas van a ir alteradas dentro de la partitura, estas armaduras pueden contener sostenidos (#) o bemoles (b), pero nunca van combinados. Para dar un ejemplo simple, la escala de Sol Mayor usa solo un sostenido, que es Fa #.", 
            "sound": {},
            "image": {
                "Armaduras": "assets/music_resources/lessons/7/Armaduras.png"
            },
            "gif":{},
            "field": "armaduras"
        },
        "activity": false
    },
    
    "Indicadores": {
        "host": "Music Kids",
        "video": ["http://192.168.100.25/45.- Indicadores.mp4","https://youtu.be/Sz9PmguSNd0"],
        "body": {
            "subtitle": "¡Hola a todos! Hoy les daremos una pequeña introducción a los indicadores de compás.",
            "content": "Los indicadores de compás nos dicen la cantidad de notas que deben de existir en cada compás y de que tipo. Por ejemplo; en un compas de 2/4 podemos separar ambos numeros; el número superior indica la canidad que deben de existir (2 Notas), y el número inferior indica de que tipo debe ser (1/4 = Negra).", 
            "sound": {},
            "image": {
                "Indicadores de compás": "assets/music_resources/lessons/7/Indicadores.png"
            },
            "gif":{},
            "field": "indicadores"
        },
        "activity": false
    }
}